{
  "data_set": {
    "object": "customer",
    "features": [
      "gender",
      "most_popular_shop",
      "distance_popular_shop",
      "distance_nearest_shop",
      "age",
      "income",
      "mean_basket_value",
      "mean_basket_size",
      "shop_customers_pct_share",
      "cat_pct_chemia",
      "cat_pct_kiosk",
      "cat_pct_mieso_i_wedliny",
      "cat_pct_mrozonki",
      "cat_pct_nabial",
      "cat_pct_napoje",
      "cat_pct_pieczywo_i_cukiernicze",
      "cat_pct_przemyslowe",
      "cat_pct_warzywa_i_owoce" 
    ],
    "fs_id": "retailcrm-example",
    "response": "trail_campaign_response"
  },
  "train": {
    "tags": [
      "r",
      "catboost"
    ],
    "proj": "retailcrm-dev-model",
    "engines": [
      "r-train(train.R)"
    ],
    "desc": "Training model in CatBoost"
  },
  "evaluate": {},
  "scores": [
    {
      "tags": [
        "r",
        "catboost",
        "batch"
      ],
      "proj": "retailcrm-dev-model",
      "engines": [
        "r-batch-score(score.R)"
      ],
      "desc": "Scoring with CatBoost"
    }
  ],
  "etls": [
    {
      "proj": "retailcrm-dev-model", 
      "engines": [
        "r-etl-exec(etl.R)"
      ], 
      "desc": "Features calculation on raw data"
    }
  ]
}
